{
    "apis": [
        "slackclient",
        "soco"
    ],
    "data_analysis": [
        "pandas",
        "numpy",
        "nummpydocmatplotlib",
        "nltk",
        "seaborn",
        "scipy",
        "scikit-learn",
        "scikit-image",
        "prettytable"
    ],
    "database": [
        "sqlalchemy",
        "pymysql",
        "sqlite3"
    ],
    "files_dirs": [
        "os"
    ],
    "flask": [
        "flask",
        "flask-cors",
        "flask-admin",
        "flask-assets",
        "flask-debugtoolbar",
        "flask-markdown",
        "flask-script",
        "flask-security",
        "flask-sqlalchemy",
        "flask-wtf",
        "jinja2",
        "werkzeug"
    ],
    "parsing": [
        "lmxl",
        "json",
        "jsonschema",
        "pyyaml",
        "htmldom",
        "markupsafe",
        "html5lib"
    ],
    "shell": [
        "subprocess"
    ],
    "utilities": [
        "pickle",
        "pickleshare",
        "packaging",
        "setuptools",
        "distutils",
        "pathlib2",
        "path.py",
        "virtualenv"
    ]
}